vtest/dumpfile/PC.vcd
$date
	Thu May  4 19:36:01 2023
$end
$version
	Icarus Verilog
$end
$timescale
	1ps
$end
$scope module PC_tb $end
$var wire 16 ! dout [15:0] $end
$var reg 1 " clk $end
$var reg 16 # din [15:0] $end
$var reg 1 $ inc $end
$var reg 1 % load $end
$var reg 1 & reset $end
$scope module u_PC $end
$var wire 1 " clk_i $end
$var wire 16 ' in_i [15:0] $end
$var wire 1 $ inc_i $end
$var wire 1 % load_i $end
$var wire 16 ( out_o [15:0] $end
$var wire 1 & reset_i $end
$var wire 16 ) out_buf [15:0] $end
$var wire 16 * in_tmp2 [15:0] $end
$var wire 16 + in_tmp1 [15:0] $end
$var wire 16 , in_new [15:0] $end
$var wire 16 - in_inc [15:0] $end
$scope module u1_Mux16 $end
$var wire 1 $ sel_i $end
$var wire 16 . out_o [15:0] $end
$var wire 16 / b_i [15:0] $end
$var wire 16 0 a_i [15:0] $end
$upscope $end
$scope module u2_Mux16 $end
$var wire 16 1 a_i [15:0] $end
$var wire 16 2 b_i [15:0] $end
$var wire 1 % sel_i $end
$var wire 16 3 out_o [15:0] $end
$upscope $end
$scope module u3_Mux16 $end
$var wire 16 4 a_i [15:0] $end
$var wire 16 5 b_i [15:0] $end
$var wire 1 & sel_i $end
$var wire 16 6 out_o [15:0] $end
$upscope $end
$scope module u_Inc16 $end
$var wire 16 7 out_o [15:0] $end
$var wire 16 8 in_i [15:0] $end
$scope module u_Add16 $end
$var wire 16 9 b_i [15:0] $end
$var wire 16 : out_o [15:0] $end
$var wire 15 ; carry [14:0] $end
$var wire 16 < a_i [15:0] $end
$scope module u10_FullAdder $end
$var wire 1 = a_i $end
$var wire 1 > b_i $end
$var wire 1 ? c_i $end
$var wire 1 @ tmp_sum $end
$var wire 1 A tmp_carry2 $end
$var wire 1 B tmp_carry1 $end
$var wire 1 C sum_o $end
$var wire 1 D carry_o $end
$scope module u1_HalfAdder $end
$var wire 1 = a_i $end
$var wire 1 > b_i $end
$var wire 1 @ sum_o $end
$var wire 1 B carry_o $end
$scope module u_And $end
$var wire 1 = a_i $end
$var wire 1 > b_i $end
$var wire 1 B out_o $end
$upscope $end
$scope module u_Xor $end
$var wire 1 = a_i $end
$var wire 1 > b_i $end
$var wire 1 @ out_o $end
$upscope $end
$upscope $end
$scope module u2_HalfAdder $end
$var wire 1 ? a_i $end
$var wire 1 @ b_i $end
$var wire 1 C sum_o $end
$var wire 1 A carry_o $end
$scope module u_And $end
$var wire 1 ? a_i $end
$var wire 1 @ b_i $end
$var wire 1 A out_o $end
$upscope $end
$scope module u_Xor $end
$var wire 1 ? a_i $end
$var wire 1 @ b_i $end
$var wire 1 C out_o $end
$upscope $end
$upscope $end
$scope module u_Or $end
$var wire 1 B a_i $end
$var wire 1 A b_i $end
$var wire 1 D out_o $end
$upscope $end
$upscope $end
$scope module u11_FullAdder $end
$var wire 1 E a_i $end
$var wire 1 F b_i $end
$var wire 1 G c_i $end
$var wire 1 H tmp_sum $end
$var wire 1 I tmp_carry2 $end
$var wire 1 J tmp_carry1 $end
$var wire 1 K sum_o $end
$var wire 1 L carry_o $end
$scope module u1_HalfAdder $end
$var wire 1 E a_i $end
$var wire 1 F b_i $end
$var wire 1 H sum_o $end
$var wire 1 J carry_o $end
$scope module u_And $end
$var wire 1 E a_i $end
$var wire 1 F b_i $end
$var wire 1 J out_o $end
$upscope $end
$scope module u_Xor $end
$var wire 1 E a_i $end
$var wire 1 F b_i $end
$var wire 1 H out_o $end
$upscope $end
$upscope $end
$scope module u2_HalfAdder $end
$var wire 1 G a_i $end
$var wire 1 H b_i $end
$var wire 1 K sum_o $end
$var wire 1 I carry_o $end
$scope module u_And $end
$var wire 1 G a_i $end
$var wire 1 H b_i $end
$var wire 1 I out_o $end
$upscope $end
$scope module u_Xor $end
$var wire 1 G a_i $end
$var wire 1 H b_i $end
$var wire 1 K out_o $end
$upscope $end
$upscope $end
$scope module u_Or $end
$var wire 1 J a_i $end
$var wire 1 I b_i $end
$var wire 1 L out_o $end
$upscope $end
$upscope $end
$scope module u12_FullAdder $end
$var wire 1 M a_i $end
$var wire 1 N b_i $end
$var wire 1 O c_i $end
$var wire 1 P tmp_sum $end
$var wire 1 Q tmp_carry2 $end
$var wire 1 R tmp_carry1 $end
$var wire 1 S sum_o $end
$var wire 1 T carry_o $end
$scope module u1_HalfAdder $end
$var wire 1 M a_i $end
$var wire 1 N b_i $end
$var wire 1 P sum_o $end
$var wire 1 R carry_o $end
$scope module u_And $end
$var wire 1 M a_i $end
$var wire 1 N b_i $end
$var wire 1 R out_o $end
$upscope $end
$scope module u_Xor $end
$var wire 1 M a_i $end
$var wire 1 N b_i $end
$var wire 1 P out_o $end
$upscope $end
$upscope $end
$scope module u2_HalfAdder $end
$var wire 1 O a_i $end
$var wire 1 P b_i $end
$var wire 1 S sum_o $end
$var wire 1 Q carry_o $end
$scope module u_And $end
$var wire 1 O a_i $end
$var wire 1 P b_i $end
$var wire 1 Q out_o $end
$upscope $end
$scope module u_Xor $end
$var wire 1 O a_i $end
$var wire 1 P b_i $end
$var wire 1 S out_o $end
$upscope $end
$upscope $end
$scope module u_Or $end
$var wire 1 R a_i $end
$var wire 1 Q b_i $end
$var wire 1 T out_o $end
$upscope $end
$upscope $end
$scope module u13_FullAdder $end
$var wire 1 U a_i $end
$var wire 1 V b_i $end
$var wire 1 W c_i $end
$var wire 1 X tmp_sum $end
$var wire 1 Y tmp_carry2 $end
$var wire 1 Z tmp_carry1 $end
$var wire 1 [ sum_o $end
$var wire 1 \ carry_o $end
$scope module u1_HalfAdder $end
$var wire 1 U a_i $end
$var wire 1 V b_i $end
$var wire 1 X sum_o $end
$var wire 1 Z carry_o $end
$scope module u_And $end
$var wire 1 U a_i $end
$var wire 1 V b_i $end
$var wire 1 Z out_o $end
$upscope $end
$scope module u_Xor $end
$var wire 1 U a_i $end
$var wire 1 V b_i $end
$var wire 1 X out_o $end
$upscope $end
$upscope $end
$scope module u2_HalfAdder $end
$var wire 1 W a_i $end
$var wire 1 X b_i $end
$var wire 1 [ sum_o $end
$var wire 1 Y carry_o $end
$scope module u_And $end
$var wire 1 W a_i $end
$var wire 1 X b_i $end
$var wire 1 Y out_o $end
$upscope $end
$scope module u_Xor $end
$var wire 1 W a_i $end
$var wire 1 X b_i $end
$var wire 1 [ out_o $end
$upscope $end
$upscope $end
$scope module u_Or $end
$var wire 1 Z a_i $end
$var wire 1 Y b_i $end
$var wire 1 \ out_o $end
$upscope $end
$upscope $end
$scope module u14_FullAdder $end
$var wire 1 ] a_i $end
$var wire 1 ^ b_i $end
$var wire 1 _ c_i $end
$var wire 1 ` tmp_sum $end
$var wire 1 a tmp_carry2 $end
$var wire 1 b tmp_carry1 $end
$var wire 1 c sum_o $end
$var wire 1 d carry_o $end
$scope module u1_HalfAdder $end
$var wire 1 ] a_i $end
$var wire 1 ^ b_i $end
$var wire 1 ` sum_o $end
$var wire 1 b carry_o $end
$scope module u_And $end
$var wire 1 ] a_i $end
$var wire 1 ^ b_i $end
$var wire 1 b out_o $end
$upscope $end
$scope module u_Xor $end
$var wire 1 ] a_i $end
$var wire 1 ^ b_i $end
$var wire 1 ` out_o $end
$upscope $end
$upscope $end
$scope module u2_HalfAdder $end
$var wire 1 _ a_i $end
$var wire 1 ` b_i $end
$var wire 1 c sum_o $end
$var wire 1 a carry_o $end
$scope module u_And $end
$var wire 1 _ a_i $end
$var wire 1 ` b_i $end
$var wire 1 a out_o $end
$upscope $end
$scope module u_Xor $end
$var wire 1 _ a_i $end
$var wire 1 ` b_i $end
$var wire 1 c out_o $end
$upscope $end
$upscope $end
$scope module u_Or $end
$var wire 1 b a_i $end
$var wire 1 a b_i $end
$var wire 1 d out_o $end
$upscope $end
$upscope $end
$scope module u15_FullAdder $end
$var wire 1 e a_i $end
$var wire 1 f b_i $end
$var wire 1 g c_i $end
$var wire 1 h tmp_sum $end
$var wire 1 i tmp_carry2 $end
$var wire 1 j tmp_carry1 $end
$var wire 1 k sum_o $end
$var wire 1 l carry_o $end
$scope module u1_HalfAdder $end
$var wire 1 e a_i $end
$var wire 1 f b_i $end
$var wire 1 h sum_o $end
$var wire 1 j carry_o $end
$scope module u_And $end
$var wire 1 e a_i $end
$var wire 1 f b_i $end
$var wire 1 j out_o $end
$upscope $end
$scope module u_Xor $end
$var wire 1 e a_i $end
$var wire 1 f b_i $end
$var wire 1 h out_o $end
$upscope $end
$upscope $end
$scope module u2_HalfAdder $end
$var wire 1 g a_i $end
$var wire 1 h b_i $end
$var wire 1 k sum_o $end
$var wire 1 i carry_o $end
$scope module u_And $end
$var wire 1 g a_i $end
$var wire 1 h b_i $end
$var wire 1 i out_o $end
$upscope $end
$scope module u_Xor $end
$var wire 1 g a_i $end
$var wire 1 h b_i $end
$var wire 1 k out_o $end
$upscope $end
$upscope $end
$scope module u_Or $end
$var wire 1 j a_i $end
$var wire 1 i b_i $end
$var wire 1 l out_o $end
$upscope $end
$upscope $end
$scope module u1_FullAdder $end
$var wire 1 m a_i $end
$var wire 1 n b_i $end
$var wire 1 o c_i $end
$var wire 1 p tmp_sum $end
$var wire 1 q tmp_carry2 $end
$var wire 1 r tmp_carry1 $end
$var wire 1 s sum_o $end
$var wire 1 t carry_o $end
$scope module u1_HalfAdder $end
$var wire 1 m a_i $end
$var wire 1 n b_i $end
$var wire 1 p sum_o $end
$var wire 1 r carry_o $end
$scope module u_And $end
$var wire 1 m a_i $end
$var wire 1 n b_i $end
$var wire 1 r out_o $end
$upscope $end
$scope module u_Xor $end
$var wire 1 m a_i $end
$var wire 1 n b_i $end
$var wire 1 p out_o $end
$upscope $end
$upscope $end
$scope module u2_HalfAdder $end
$var wire 1 o a_i $end
$var wire 1 p b_i $end
$var wire 1 s sum_o $end
$var wire 1 q carry_o $end
$scope module u_And $end
$var wire 1 o a_i $end
$var wire 1 p b_i $end
$var wire 1 q out_o $end
$upscope $end
$scope module u_Xor $end
$var wire 1 o a_i $end
$var wire 1 p b_i $end
$var wire 1 s out_o $end
$upscope $end
$upscope $end
$scope module u_Or $end
$var wire 1 r a_i $end
$var wire 1 q b_i $end
$var wire 1 t out_o $end
$upscope $end
$upscope $end
$scope module u2_FullAdder $end
$var wire 1 u a_i $end
$var wire 1 v b_i $end
$var wire 1 w c_i $end
$var wire 1 x tmp_sum $end
$var wire 1 y tmp_carry2 $end
$var wire 1 z tmp_carry1 $end
$var wire 1 { sum_o $end
$var wire 1 | carry_o $end
$scope module u1_HalfAdder $end
$var wire 1 u a_i $end
$var wire 1 v b_i $end
$var wire 1 x sum_o $end
$var wire 1 z carry_o $end
$scope module u_And $end
$var wire 1 u a_i $end
$var wire 1 v b_i $end
$var wire 1 z out_o $end
$upscope $end
$scope module u_Xor $end
$var wire 1 u a_i $end
$var wire 1 v b_i $end
$var wire 1 x out_o $end
$upscope $end
$upscope $end
$scope module u2_HalfAdder $end
$var wire 1 w a_i $end
$var wire 1 x b_i $end
$var wire 1 { sum_o $end
$var wire 1 y carry_o $end
$scope module u_And $end
$var wire 1 w a_i $end
$var wire 1 x b_i $end
$var wire 1 y out_o $end
$upscope $end
$scope module u_Xor $end
$var wire 1 w a_i $end
$var wire 1 x b_i $end
$var wire 1 { out_o $end
$upscope $end
$upscope $end
$scope module u_Or $end
$var wire 1 z a_i $end
$var wire 1 y b_i $end
$var wire 1 | out_o $end
$upscope $end
$upscope $end
$scope module u3_FullAdder $end
$var wire 1 } a_i $end
$var wire 1 ~ b_i $end
$var wire 1 !" c_i $end
$var wire 1 "" tmp_sum $end
$var wire 1 #" tmp_carry2 $end
$var wire 1 $" tmp_carry1 $end
$var wire 1 %" sum_o $end
$var wire 1 &" carry_o $end
$scope module u1_HalfAdder $end
$var wire 1 } a_i $end
$var wire 1 ~ b_i $end
$var wire 1 "" sum_o $end
$var wire 1 $" carry_o $end
$scope module u_And $end
$var wire 1 } a_i $end
$var wire 1 ~ b_i $end
$var wire 1 $" out_o $end
$upscope $end
$scope module u_Xor $end
$var wire 1 } a_i $end
$var wire 1 ~ b_i $end
$var wire 1 "" out_o $end
$upscope $end
$upscope $end
$scope module u2_HalfAdder $end
$var wire 1 !" a_i $end
$var wire 1 "" b_i $end
$var wire 1 %" sum_o $end
$var wire 1 #" carry_o $end
$scope module u_And $end
$var wire 1 !" a_i $end
$var wire 1 "" b_i $end
$var wire 1 #" out_o $end
$upscope $end
$scope module u_Xor $end
$var wire 1 !" a_i $end
$var wire 1 "" b_i $end
$var wire 1 %" out_o $end
$upscope $end
$upscope $end
$scope module u_Or $end
$var wire 1 $" a_i $end
$var wire 1 #" b_i $end
$var wire 1 &" out_o $end
$upscope $end
$upscope $end
$scope module u4_FullAdder $end
$var wire 1 '" a_i $end
$var wire 1 (" b_i $end
$var wire 1 )" c_i $end
$var wire 1 *" tmp_sum $end
$var wire 1 +" tmp_carry2 $end
$var wire 1 ," tmp_carry1 $end
$var wire 1 -" sum_o $end
$var wire 1 ." carry_o $end
$scope module u1_HalfAdder $end
$var wire 1 '" a_i $end
$var wire 1 (" b_i $end
$var wire 1 *" sum_o $end
$var wire 1 ," carry_o $end
$scope module u_And $end
$var wire 1 '" a_i $end
$var wire 1 (" b_i $end
$var wire 1 ," out_o $end
$upscope $end
$scope module u_Xor $end
$var wire 1 '" a_i $end
$var wire 1 (" b_i $end
$var wire 1 *" out_o $end
$upscope $end
$upscope $end
$scope module u2_HalfAdder $end
$var wire 1 )" a_i $end
$var wire 1 *" b_i $end
$var wire 1 -" sum_o $end
$var wire 1 +" carry_o $end
$scope module u_And $end
$var wire 1 )" a_i $end
$var wire 1 *" b_i $end
$var wire 1 +" out_o $end
$upscope $end
$scope module u_Xor $end
$var wire 1 )" a_i $end
$var wire 1 *" b_i $end
$var wire 1 -" out_o $end
$upscope $end
$upscope $end
$scope module u_Or $end
$var wire 1 ," a_i $end
$var wire 1 +" b_i $end
$var wire 1 ." out_o $end
$upscope $end
$upscope $end
$scope module u5_FullAdder $end
$var wire 1 /" a_i $end
$var wire 1 0" b_i $end
$var wire 1 1" c_i $end
$var wire 1 2" tmp_sum $end
$var wire 1 3" tmp_carry2 $end
$var wire 1 4" tmp_carry1 $end
$var wire 1 5" sum_o $end
$var wire 1 6" carry_o $end
$scope module u1_HalfAdder $end
$var wire 1 /" a_i $end
$var wire 1 0" b_i $end
$var wire 1 2" sum_o $end
$var wire 1 4" carry_o $end
$scope module u_And $end
$var wire 1 /" a_i $end
$var wire 1 0" b_i $end
$var wire 1 4" out_o $end
$upscope $end
$scope module u_Xor $end
$var wire 1 /" a_i $end
$var wire 1 0" b_i $end
$var wire 1 2" out_o $end
$upscope $end
$upscope $end
$scope module u2_HalfAdder $end
$var wire 1 1" a_i $end
$var wire 1 2" b_i $end
$var wire 1 5" sum_o $end
$var wire 1 3" carry_o $end
$scope module u_And $end
$var wire 1 1" a_i $end
$var wire 1 2" b_i $end
$var wire 1 3" out_o $end
$upscope $end
$scope module u_Xor $end
$var wire 1 1" a_i $end
$var wire 1 2" b_i $end
$var wire 1 5" out_o $end
$upscope $end
$upscope $end
$scope module u_Or $end
$var wire 1 4" a_i $end
$var wire 1 3" b_i $end
$var wire 1 6" out_o $end
$upscope $end
$upscope $end
$scope module u6_FullAdder $end
$var wire 1 7" a_i $end
$var wire 1 8" b_i $end
$var wire 1 9" c_i $end
$var wire 1 :" tmp_sum $end
$var wire 1 ;" tmp_carry2 $end
$var wire 1 <" tmp_carry1 $end
$var wire 1 =" sum_o $end
$var wire 1 >" carry_o $end
$scope module u1_HalfAdder $end
$var wire 1 7" a_i $end
$var wire 1 8" b_i $end
$var wire 1 :" sum_o $end
$var wire 1 <" carry_o $end
$scope module u_And $end
$var wire 1 7" a_i $end
$var wire 1 8" b_i $end
$var wire 1 <" out_o $end
$upscope $end
$scope module u_Xor $end
$var wire 1 7" a_i $end
$var wire 1 8" b_i $end
$var wire 1 :" out_o $end
$upscope $end
$upscope $end
$scope module u2_HalfAdder $end
$var wire 1 9" a_i $end
$var wire 1 :" b_i $end
$var wire 1 =" sum_o $end
$var wire 1 ;" carry_o $end
$scope module u_And $end
$var wire 1 9" a_i $end
$var wire 1 :" b_i $end
$var wire 1 ;" out_o $end
$upscope $end
$scope module u_Xor $end
$var wire 1 9" a_i $end
$var wire 1 :" b_i $end
$var wire 1 =" out_o $end
$upscope $end
$upscope $end
$scope module u_Or $end
$var wire 1 <" a_i $end
$var wire 1 ;" b_i $end
$var wire 1 >" out_o $end
$upscope $end
$upscope $end
$scope module u7_FullAdder $end
$var wire 1 ?" a_i $end
$var wire 1 @" b_i $end
$var wire 1 A" c_i $end
$var wire 1 B" tmp_sum $end
$var wire 1 C" tmp_carry2 $end
$var wire 1 D" tmp_carry1 $end
$var wire 1 E" sum_o $end
$var wire 1 F" carry_o $end
$scope module u1_HalfAdder $end
$var wire 1 ?" a_i $end
$var wire 1 @" b_i $end
$var wire 1 B" sum_o $end
$var wire 1 D" carry_o $end
$scope module u_And $end
$var wire 1 ?" a_i $end
$var wire 1 @" b_i $end
$var wire 1 D" out_o $end
$upscope $end
$scope module u_Xor $end
$var wire 1 ?" a_i $end
$var wire 1 @" b_i $end
$var wire 1 B" out_o $end
$upscope $end
$upscope $end
$scope module u2_HalfAdder $end
$var wire 1 A" a_i $end
$var wire 1 B" b_i $end
$var wire 1 E" sum_o $end
$var wire 1 C" carry_o $end
$scope module u_And $end
$var wire 1 A" a_i $end
$var wire 1 B" b_i $end
$var wire 1 C" out_o $end
$upscope $end
$scope module u_Xor $end
$var wire 1 A" a_i $end
$var wire 1 B" b_i $end
$var wire 1 E" out_o $end
$upscope $end
$upscope $end
$scope module u_Or $end
$var wire 1 D" a_i $end
$var wire 1 C" b_i $end
$var wire 1 F" out_o $end
$upscope $end
$upscope $end
$scope module u8_FullAdder $end
$var wire 1 G" a_i $end
$var wire 1 H" b_i $end
$var wire 1 I" c_i $end
$var wire 1 J" tmp_sum $end
$var wire 1 K" tmp_carry2 $end
$var wire 1 L" tmp_carry1 $end
$var wire 1 M" sum_o $end
$var wire 1 N" carry_o $end
$scope module u1_HalfAdder $end
$var wire 1 G" a_i $end
$var wire 1 H" b_i $end
$var wire 1 J" sum_o $end
$var wire 1 L" carry_o $end
$scope module u_And $end
$var wire 1 G" a_i $end
$var wire 1 H" b_i $end
$var wire 1 L" out_o $end
$upscope $end
$scope module u_Xor $end
$var wire 1 G" a_i $end
$var wire 1 H" b_i $end
$var wire 1 J" out_o $end
$upscope $end
$upscope $end
$scope module u2_HalfAdder $end
$var wire 1 I" a_i $end
$var wire 1 J" b_i $end
$var wire 1 M" sum_o $end
$var wire 1 K" carry_o $end
$scope module u_And $end
$var wire 1 I" a_i $end
$var wire 1 J" b_i $end
$var wire 1 K" out_o $end
$upscope $end
$scope module u_Xor $end
$var wire 1 I" a_i $end
$var wire 1 J" b_i $end
$var wire 1 M" out_o $end
$upscope $end
$upscope $end
$scope module u_Or $end
$var wire 1 L" a_i $end
$var wire 1 K" b_i $end
$var wire 1 N" out_o $end
$upscope $end
$upscope $end
$scope module u9_FullAdder $end
$var wire 1 O" a_i $end
$var wire 1 P" b_i $end
$var wire 1 Q" c_i $end
$var wire 1 R" tmp_sum $end
$var wire 1 S" tmp_carry2 $end
$var wire 1 T" tmp_carry1 $end
$var wire 1 U" sum_o $end
$var wire 1 V" carry_o $end
$scope module u1_HalfAdder $end
$var wire 1 O" a_i $end
$var wire 1 P" b_i $end
$var wire 1 R" sum_o $end
$var wire 1 T" carry_o $end
$scope module u_And $end
$var wire 1 O" a_i $end
$var wire 1 P" b_i $end
$var wire 1 T" out_o $end
$upscope $end
$scope module u_Xor $end
$var wire 1 O" a_i $end
$var wire 1 P" b_i $end
$var wire 1 R" out_o $end
$upscope $end
$upscope $end
$scope module u2_HalfAdder $end
$var wire 1 Q" a_i $end
$var wire 1 R" b_i $end
$var wire 1 U" sum_o $end
$var wire 1 S" carry_o $end
$scope module u_And $end
$var wire 1 Q" a_i $end
$var wire 1 R" b_i $end
$var wire 1 S" out_o $end
$upscope $end
$scope module u_Xor $end
$var wire 1 Q" a_i $end
$var wire 1 R" b_i $end
$var wire 1 U" out_o $end
$upscope $end
$upscope $end
$scope module u_Or $end
$var wire 1 T" a_i $end
$var wire 1 S" b_i $end
$var wire 1 V" out_o $end
$upscope $end
$upscope $end
$scope module u_HalfAdder $end
$var wire 1 W" a_i $end
$var wire 1 X" b_i $end
$var wire 1 Y" sum_o $end
$var wire 1 Z" carry_o $end
$scope module u_And $end
$var wire 1 W" a_i $end
$var wire 1 X" b_i $end
$var wire 1 Z" out_o $end
$upscope $end
$scope module u_Xor $end
$var wire 1 W" a_i $end
$var wire 1 X" b_i $end
$var wire 1 Y" out_o $end
$upscope $end
$upscope $end
$upscope $end
$upscope $end
$scope module u_Register $end
$var wire 1 " clk_i $end
$var wire 16 [" in_i [15:0] $end
$var wire 1 \" load_i $end
$var wire 16 ]" out_o [15:0] $end
$scope module u10_Bit $end
$var wire 1 " clk_i $end
$var wire 1 ^" in_i $end
$var wire 1 _" in_new $end
$var wire 1 \" load_i $end
$var wire 1 `" out_o $end
$scope module u_DFF $end
$var wire 1 " clk_i $end
$var wire 1 _" in_i $end
$var reg 1 `" out_o $end
$upscope $end
$upscope $end
$scope module u11_Bit $end
$var wire 1 " clk_i $end
$var wire 1 a" in_i $end
$var wire 1 b" in_new $end
$var wire 1 \" load_i $end
$var wire 1 c" out_o $end
$scope module u_DFF $end
$var wire 1 " clk_i $end
$var wire 1 b" in_i $end
$var reg 1 c" out_o $end
$upscope $end
$upscope $end
$scope module u12_Bit $end
$var wire 1 " clk_i $end
$var wire 1 d" in_i $end
$var wire 1 e" in_new $end
$var wire 1 \" load_i $end
$var wire 1 f" out_o $end
$scope module u_DFF $end
$var wire 1 " clk_i $end
$var wire 1 e" in_i $end
$var reg 1 f" out_o $end
$upscope $end
$upscope $end
$scope module u13_Bit $end
$var wire 1 " clk_i $end
$var wire 1 g" in_i $end
$var wire 1 h" in_new $end
$var wire 1 \" load_i $end
$var wire 1 i" out_o $end
$scope module u_DFF $end
$var wire 1 " clk_i $end
$var wire 1 h" in_i $end
$var reg 1 i" out_o $end
$upscope $end
$upscope $end
$scope module u14_Bit $end
$var wire 1 " clk_i $end
$var wire 1 j" in_i $end
$var wire 1 k" in_new $end
$var wire 1 \" load_i $end
$var wire 1 l" out_o $end
$scope module u_DFF $end
$var wire 1 " clk_i $end
$var wire 1 k" in_i $end
$var reg 1 l" out_o $end
$upscope $end
$upscope $end
$scope module u15_Bit $end
$var wire 1 " clk_i $end
$var wire 1 m" in_i $end
$var wire 1 n" in_new $end
$var wire 1 \" load_i $end
$var wire 1 o" out_o $end
$scope module u_DFF $end
$var wire 1 " clk_i $end
$var wire 1 n" in_i $end
$var reg 1 o" out_o $end
$upscope $end
$upscope $end
$scope module u16_Bit $end
$var wire 1 " clk_i $end
$var wire 1 p" in_i $end
$var wire 1 q" in_new $end
$var wire 1 \" load_i $end
$var wire 1 r" out_o $end
$scope module u_DFF $end
$var wire 1 " clk_i $end
$var wire 1 q" in_i $end
$var reg 1 r" out_o $end
$upscope $end
$upscope $end
$scope module u1_Bit $end
$var wire 1 " clk_i $end
$var wire 1 s" in_i $end
$var wire 1 t" in_new $end
$var wire 1 \" load_i $end
$var wire 1 u" out_o $end
$scope module u_DFF $end
$var wire 1 " clk_i $end
$var wire 1 t" in_i $end
$var reg 1 u" out_o $end
$upscope $end
$upscope $end
$scope module u2_Bit $end
$var wire 1 " clk_i $end
$var wire 1 v" in_i $end
$var wire 1 w" in_new $end
$var wire 1 \" load_i $end
$var wire 1 x" out_o $end
$scope module u_DFF $end
$var wire 1 " clk_i $end
$var wire 1 w" in_i $end
$var reg 1 x" out_o $end
$upscope $end
$upscope $end
$scope module u3_Bit $end
$var wire 1 " clk_i $end
$var wire 1 y" in_i $end
$var wire 1 z" in_new $end
$var wire 1 \" load_i $end
$var wire 1 {" out_o $end
$scope module u_DFF $end
$var wire 1 " clk_i $end
$var wire 1 z" in_i $end
$var reg 1 {" out_o $end
$upscope $end
$upscope $end
$scope module u4_Bit $end
$var wire 1 " clk_i $end
$var wire 1 |" in_i $end
$var wire 1 }" in_new $end
$var wire 1 \" load_i $end
$var wire 1 ~" out_o $end
$scope module u_DFF $end
$var wire 1 " clk_i $end
$var wire 1 }" in_i $end
$var reg 1 ~" out_o $end
$upscope $end
$upscope $end
$scope module u5_Bit $end
$var wire 1 " clk_i $end
$var wire 1 !# in_i $end
$var wire 1 "# in_new $end
$var wire 1 \" load_i $end
$var wire 1 ## out_o $end
$scope module u_DFF $end
$var wire 1 " clk_i $end
$var wire 1 "# in_i $end
$var reg 1 ## out_o $end
$upscope $end
$upscope $end
$scope module u6_Bit $end
$var wire 1 " clk_i $end
$var wire 1 $# in_i $end
$var wire 1 %# in_new $end
$var wire 1 \" load_i $end
$var wire 1 &# out_o $end
$scope module u_DFF $end
$var wire 1 " clk_i $end
$var wire 1 %# in_i $end
$var reg 1 &# out_o $end
$upscope $end
$upscope $end
$scope module u7_Bit $end
$var wire 1 " clk_i $end
$var wire 1 '# in_i $end
$var wire 1 (# in_new $end
$var wire 1 \" load_i $end
$var wire 1 )# out_o $end
$scope module u_DFF $end
$var wire 1 " clk_i $end
$var wire 1 (# in_i $end
$var reg 1 )# out_o $end
$upscope $end
$upscope $end
$scope module u8_Bit $end
$var wire 1 " clk_i $end
$var wire 1 *# in_i $end
$var wire 1 +# in_new $end
$var wire 1 \" load_i $end
$var wire 1 ,# out_o $end
$scope module u_DFF $end
$var wire 1 " clk_i $end
$var wire 1 +# in_i $end
$var reg 1 ,# out_o $end
$upscope $end
$upscope $end
$scope module u9_Bit $end
$var wire 1 " clk_i $end
$var wire 1 -# in_i $end
$var wire 1 .# in_new $end
$var wire 1 \" load_i $end
$var wire 1 /# out_o $end
$scope module u_DFF $end
$var wire 1 " clk_i $end
$var wire 1 .# in_i $end
$var reg 1 /# out_o $end
$upscope $end
$upscope $end
$upscope $end
$upscope $end
$upscope $end
$enddefinitions $end
#0
$dumpvars
x/#
x.#
x-#
x,#
x+#
x*#
x)#
x(#
x'#
x&#
x%#
x$#
x##
x"#
x!#
x~"
x}"
x|"
x{"
xz"
xy"
xx"
xw"
xv"
xu"
xt"
xs"
xr"
xq"
xp"
xo"
xn"
xm"
xl"
xk"
xj"
xi"
xh"
xg"
xf"
xe"
xd"
xc"
xb"
xa"
x`"
x_"
x^"
bx ]"
1\"
bx ["
xZ"
xY"
1X"
xW"
xV"
xU"
0T"
xS"
xR"
xQ"
0P"
xO"
xN"
xM"
0L"
xK"
xJ"
xI"
0H"
xG"
xF"
xE"
0D"
xC"
xB"
xA"
0@"
x?"
x>"
x="
0<"
x;"
x:"
x9"
08"
x7"
x6"
x5"
04"
x3"
x2"
x1"
00"
x/"
x."
x-"
0,"
x+"
x*"
x)"
0("
x'"
x&"
x%"
0$"
x#"
x""
x!"
0~
x}
x|
x{
0z
xy
xx
xw
0v
xu
xt
xs
0r
xq
xp
xo
0n
xm
xl
xk
0j
xi
xh
xg
0f
xe
xd
xc
0b
xa
x`
x_
0^
x]
x\
x[
0Z
xY
xX
xW
0V
xU
xT
xS
0R
xQ
xP
xO
0N
xM
xL
xK
0J
xI
xH
xG
0F
xE
xD
xC
0B
xA
x@
x?
0>
x=
bx <
bx ;
bx :
b1 9
bx 8
bx 7
bx 6
b0 5
bx 4
bx 3
b0 2
bx 1
bx 0
bx /
bx .
bx -
bx ,
bx +
bx *
bx )
bx (
b0 '
0&
0%
0$
b0 #
0"
bx !
$end
#3000
b1000001010000101 #
b1000001010000101 '
b1000001010000101 2
#5000
1"
#10000
0"
#12000
1$
b10101101100111 #
b10101101100111 '
b10101101100111 2
#15000
1"
#20000
0"
#21000
1t"
1s"
1w"
1v"
1z"
1y"
0}"
0|"
0"#
0!#
1%#
1$#
1(#
1'#
0+#
0*#
1.#
1-#
1_"
1^"
0b"
0a"
1e"
1d"
0h"
0g"
1k"
1j"
0n"
0m"
0q"
0p"
b10101101100111 ,
b10101101100111 6
b10101101100111 ["
b10101101100111 *
b10101101100111 3
b10101101100111 4
1%
#24000
0w"
0v"
0z"
0y"
1}"
1|"
1"#
1!#
0(#
0'#
0.#
0-#
0_"
0^"
0e"
0d"
1h"
1g"
b11000000111001 ,
b11000000111001 6
b11000000111001 ["
b11000000111001 *
b11000000111001 3
b11000000111001 4
b11000000111001 #
b11000000111001 '
b11000000111001 2
#25000
0="
09"
06"
03"
15"
0c
01"
0_
0."
0\
0+"
1-"
0Y
1[
0)"
0W
0&"
0T
0{
0#"
1%"
0E"
0M"
0U"
0C
0K
0Q
1S
0k
0w
0!"
0A"
0I"
0Q"
0?
0G
0O
0g
1s
0t
0|
0>"
0F"
0N"
0V"
0D
0L
0d
0l
1o
b11000000111010 +
b11000000111010 .
b11000000111010 1
0q
0y
0;"
0C"
0K"
0S"
0A
0I
0a
0i
b1 ;
1Z"
b11000000111010 -
b11000000111010 /
b11000000111010 7
b11000000111010 :
0Y"
0p
0x
1""
1*"
12"
0:"
0B"
0J"
0R"
0@
0H
1P
1X
0`
0h
1W"
0m
0u
1}
1'"
1/"
07"
0?"
0G"
0O"
0=
0E
1M
1U
0]
0e
1u"
0x"
0{"
1~"
1##
1&#
0)#
0,#
0/#
0`"
0c"
0f"
1i"
1l"
0o"
b11000000111001 !
b11000000111001 (
b11000000111001 )
b11000000111001 0
b11000000111001 8
b11000000111001 <
b11000000111001 ]"
0r"
1"
#30000
0t"
0s"
1w"
1v"
b11000000111010 ,
b11000000111010 6
b11000000111010 ["
b11000000111010 *
b11000000111010 3
b11000000111010 4
0%
0"
#33000
b1000 #
b1000 '
b1000 2
